#Command: "C:\Program Files (x86)\Microsoft Visual Studio 14.0\VC\bin\x86_amd64\link.exe" /ERRORREPORT:PROMPT @C:\Users\Cameron\AppData\Local\Temp\tmp65c64dbfa2284e758bd320d7e2340130.rsp /incremental /nologo /fullbuild
^C:\USERS\CAMERON\DOCUMENTS\UNI\REASSESMENTS\HIGH LEVEL ARCHITECTURE\PROJECT\EXAMPLE\OBJ\AIACTOR.OBJ|C:\USERS\CAMERON\DOCUMENTS\UNI\REASSESMENTS\HIGH LEVEL ARCHITECTURE\PROJECT\EXAMPLE\OBJ\AIBRAIN.OBJ|C:\USERS\CAMERON\DOCUMENTS\UNI\REASSESMENTS\HIGH LEVEL ARCHITECTURE\PROJECT\EXAMPLE\OBJ\CHARGEAREA.OBJ|C:\USERS\CAMERON\DOCUMENTS\UNI\REASSESMENTS\HIGH LEVEL ARCHITECTURE\PROJECT\EXAMPLE\OBJ\CHASE.OBJ|C:\USERS\CAMERON\DOCUMENTS\UNI\REASSESMENTS\HIGH LEVEL ARCHITECTURE\PROJECT\EXAMPLE\OBJ\FLEE.OBJ|C:\USERS\CAMERON\DOCUMENTS\UNI\REASSESMENTS\HIGH LEVEL ARCHITECTURE\PROJECT\EXAMPLE\OBJ\INVERTER.OBJ|C:\USERS\CAMERON\DOCUMENTS\UNI\REASSESMENTS\HIGH LEVEL ARCHITECTURE\PROJECT\EXAMPLE\OBJ\ISCHARGELOW.OBJ|C:\USERS\CAMERON\DOCUMENTS\UNI\REASSESMENTS\HIGH LEVEL ARCHITECTURE\PROJECT\EXAMPLE\OBJ\ISENEMYINSIGHT.OBJ|C:\USERS\CAMERON\DOCUMENTS\UNI\REASSESMENTS\HIGH LEVEL ARCHITECTURE\PROJECT\EXAMPLE\OBJ\ISRIGHTSTATUS.OBJ|C:\USERS\CAMERON\DOCUMENTS\UNI\REASSESMENTS\HIGH LEVEL ARCHITECTURE\PROJECT\EXAMPLE\OBJ\LINECOMPARER.OBJ|C:\USERS\CAMERON\DOCUMENTS\UNI\REASSESMENTS\HIGH LEVEL ARCHITECTURE\PROJECT\EXAMPLE\OBJ\LOOPUNTILFAILURE.OBJ|C:\USERS\CAMERON\DOCUMENTS\UNI\REASSESMENTS\HIGH LEVEL ARCHITECTURE\PROJECT\EXAMPLE\OBJ\MAIN.OBJ|C:\USERS\CAMERON\DOCUMENTS\UNI\REASSESMENTS\HIGH LEVEL ARCHITECTURE\PROJECT\EXAMPLE\OBJ\MYAPPLICATION.OBJ|C:\USERS\CAMERON\DOCUMENTS\UNI\REASSESMENTS\HIGH LEVEL ARCHITECTURE\PROJECT\EXAMPLE\OBJ\NAVMESH.OBJ|C:\USERS\CAMERON\DOCUMENTS\UNI\REASSESMENTS\HIGH LEVEL ARCHITECTURE\PROJECT\EXAMPLE\OBJ\PATROL.OBJ|C:\USERS\CAMERON\DOCUMENTS\UNI\REASSESMENTS\HIGH LEVEL ARCHITECTURE\PROJECT\EXAMPLE\OBJ\PATROLANDCHARGEBT.OBJ|C:\USERS\CAMERON\DOCUMENTS\UNI\REASSESMENTS\HIGH LEVEL ARCHITECTURE\PROJECT\EXAMPLE\OBJ\RECHARGE.OBJ|C:\USERS\CAMERON\DOCUMENTS\UNI\REASSESMENTS\HIGH LEVEL ARCHITECTURE\PROJECT\EXAMPLE\OBJ\RUNAWAY.OBJ|C:\USERS\CAMERON\DOCUMENTS\UNI\REASSESMENTS\HIGH LEVEL ARCHITECTURE\PROJECT\EXAMPLE\OBJ\SEEK.OBJ|C:\USERS\CAMERON\DOCUMENTS\UNI\REASSESMENTS\HIGH LEVEL ARCHITECTURE\PROJECT\EXAMPLE\OBJ\SELECTOR.OBJ|C:\USERS\CAMERON\DOCUMENTS\UNI\REASSESMENTS\HIGH LEVEL ARCHITECTURE\PROJECT\EXAMPLE\OBJ\SEQUENCE.OBJ|C:\USERS\CAMERON\DOCUMENTS\UNI\REASSESMENTS\HIGH LEVEL ARCHITECTURE\PROJECT\EXAMPLE\OBJ\SLEEP.OBJ|C:\USERS\CAMERON\DOCUMENTS\UNI\REASSESMENTS\HIGH LEVEL ARCHITECTURE\PROJECT\EXAMPLE\OBJ\STAGE.OBJ|C:\USERS\CAMERON\DOCUMENTS\UNI\REASSESMENTS\HIGH LEVEL ARCHITECTURE\PROJECT\EXAMPLE\OBJ\TAGBT.OBJ
C:\USERS\CAMERON\DOCUMENTS\UNI\REASSESMENTS\HIGH LEVEL ARCHITECTURE\PROJECT\EXAMPLE\BIN\EXAMPLE_BT1.PDB
